{
  "_recorded_at": "2026-04-14",
  "_endpoint": "/v2/licitacao/processos",
  "_source": "derived from backend/tests/snapshots/api_contracts/pcp_record_schema.json (real captured shape)",
  "_params": {
    "page": 1
  },
  "response": {
    "currentPage": 1,
    "pageCount": 10,
    "limit": 10,
    "offset": 0,
    "total": 100,
    "nextPage": 2,
    "previousPage": null,
    "result": [
      {
        "codigoLicitacao": 471087,
        "numeroLicitacao": null,
        "identificacao": "027/2026",
        "numero": "007/2026",
        "resumo": "contratação de empresa especializada para prestação de serviços de publicações oficiais em jornais",
        "razaoSocial": "Prefeitura Municipal de Josenópolis",
        "nomeUnidade": "Prefeitura Municipal de Josenópolis",
        "status": {
          "codigo": 1,
          "descricao": "Recebendo Propostas"
        },
        "situacao": {
          "codigo": 0,
          "descricao": null
        },
        "tipoLicitacao": {
          "codigoModalidadeLicitacao": 0,
          "modalidadeLicitacao": "Dispensa",
          "codigoTipoLicitacao": 34,
          "siglaTipoLicitacao": null,
          "tipoLicitacao": "Dispensa Presencial",
          "tipoRealizacao": "Presencial",
          "tipoJulgamento": "Menor Preço"
        },
        "codigoSituacaoEdital": 5,
        "codigoTratamentoDiferenciado": 1,
        "codigoSituacaoCadastroLicitacao": 2,
        "dataHoraInicioLances": "2026-04-14T02:59:00Z",
        "dataHoraInicioPropostas": "2026-04-09T02:00:00Z",
        "dataHoraFinalPropostas": "2026-04-14T02:59:00Z",
        "dataHoraFinalLances": null,
        "dataHoraPublicacao": "2026-04-09T01:22:00Z",
        "isPublicado": false,
        "unidadeCompradora": {
          "codigoUnidadeCompradora": 4623,
          "nomeUnidadeCompradora": "Prefeitura Municipal de Josenópolis",
          "codigoComprador": 2531,
          "nomeComprador": null,
          "cidade": "Josenópolis",
          "codigoMunicipioIbge": null,
          "uf": "MG"
        },
        "comprador": null,
        "urlReferencia": "/mg/prefeitura-municipal-de-josenopolis-2531/dp-007-2026-2026-471087",
        "statusProcessoPublico": {
          "codigo": 1,
          "descricao": "Recebendo Propostas"
        },
        "isExclusivoME": false,
        "isBeneficoLocal": false
      }
    ]
  }
}
